QA output created by 527
Fatal Error: timestamp 2013-03-18 13:40:00.000000 not greater than previous valid timestamp 2013-03-18 14:20:00.000000
pmiWrite(gfs.fmb): Illegal result timestamp at TMP.pl line 47, <INFILE> line 2.
