/usr/bin/collectl2pcp
QA output created by 544
## Testing RHEL6.4 inst/value extraction, checksums:
40722 TMP.out.cpus
44436 TMP.out.disks
34420 TMP.out.general
44436 TMP.out.nets
42863 TMP.out.procs
## Testing Debian inst/value extraction, checksums:
14808 TMP.out.cpus
30729 TMP.out.disks
24005 TMP.out.general
30729 TMP.out.nets
27879 TMP.out.procs
