QA output created by 722
ATOP - Day Month 9 9:9:9 9 9:9:9 elapsed
PRC | sys 9h9m | user 9h9m | #proc 9 | #zombie 9
CPU | sys 9% | user 9% | irq 9% | idle 9% | wait 9% |
cpu | sys 9% | user 9% | irq 9% | idle 9% | cpu9 9% |
cpu | sys 9% | user 9% | irq 9% | idle 9% | cpu9 9% |
CPL | avg9 9 | avg9 9 | avg9 9 | csw 9 | intr 9 |
MEM | tot 9M | free 9M | cache 9M | buff 9M | slab 9M |
SWP | tot 9G | free 9G | | vmcom 9G | vmlim 9G |
PAG | scan 9 | steal 9 | stall 9 | swin 9 | swout 9 |
LVM | x | | read 9 | write 9 |
LVM | x | | read 9 | write 9 |
LVM | x | | read 9 | write 9 |
LVM | x | | read 9 | write 9 |
LVM | x | | read 9 | write 9 |
DSK | sda | busy 9% | read 9 | write 9 | avio 9 ms |
NET | transport | tcpi 9M | tcpo 9M | udpi 9M | udpo 9M |
NET | network | ipi 9M | ipo 9M | ipfrw 9M | deliv 9M |
NET | lo | pcki 9M | pcko 9M | si 9 Kbps | so 9 Kpbs |
NET | em9 | pcki 9M | pcko 9M | si 9 Kbps | so 9 Kpbs |
NET | wlan9 | pcki 9M | pcko 9M | si 9 Kbps | so 9 Kpbs |
NET | tun9 | pcki 9M | pcko 9M | si 9 Kbps | so 9 Kpbs |
PID VDATA VSTACK VGROW RGROW VSIZE RSIZE MEM CMD
9 9K 9K 9K 9K 9K 9K 9% firefox
9 9K 9K 9K 9K 9K 9K 9% Xorg
9 9K 9K 9K 9K 9K 9K 9% gnome-shell
9 9K 9K 9K 9K 9K 9K 9% Timer
9 9K 9K 9K 9K 9K 9K 9% gdbus
9 9K 9K 9K 9K 9K 9K 9% emacs
9 9K 9K 9K 9K 9K 9K 9% thunderbird
9 9K 9K 9K 9K 9K 9K 9% ibus-x9
9 9K 9K 9K 9K 9K 9K 9% ibus-daemon
9 9K 9K 9K 9K 9K 9K 9% xchat
9 9K 9K 9K 9K 9K 9K 9% vino-server
9 9K 9K 9K 9K 9K 9K 9% gdbus
9 9K 9K 9K 9K 9K 9K 9% gnome-settings-
9 9K 9K 9K 9K 9K 9K 9% gnome-terminal
9 9K 9K 9K 9K 9K 9K 9% polkitd
9 9K 9K 9K 9K 9K 9K 9% dbus-daemon
9 9K 9K 9K 9K 9K 9K 9% gdbus
9 9K 9K 9K 9K 9K 9K 9% UR
9 9K 9K 9K 9K 9K 9K 9% NetworkManager
9 9K 9K 9K 9K 9K 9K 9% cupsd
9 9K 9K 9K 9K 9K 9K 9% Socke
9 9K 9K 9K 9K 9K 9K 9% gdbus
9 9K 9K 9K 9K 9K 9K 9% rcu_sched
9 9K 9K 9K 9K 9K 9K 9% gdbus
9 9K 9K 9K 9K 9K 9K 9% cups-polld
9 9K 9K 9K 9K 9K 9K 9% J
9 9K 9K 9K 9K 9K 9K 9% ibus-ui-gtk9
9 9K 9K 9K 9K 9K 9K 9% Timer
9 9K 9K 9K 9K 9K 9K 9% XPCO
9 9K 9K 9K 9K 9K 9K 9% ibus-engine-sim
9 9K 9K 9K 9K 9K 9K 9% J
9 9K 9K 9K 9K 9K 9K 9% nm-applet
9 9K 9K 9K 9K 9K 9K 9% gdbus
9 9K 9K 9K 9K 9K 9K 9% gdbus
9 9K 9K 9K 9K 9K 9K 9% irqbalance
9 9K 9K 9K 9K 9K 9K 9% acpid
9 9K 9K 9K 9K 9K 9K 9% khugepaged
9 9K 9K 9K 9K 9K 9K 9% mission-control
9 9K 9K 9K 9K 9K 9K 9% upowerd
9 9K 9K 9K 9K 9K 9K 9% XPCO
9 9K 9K 9K 9K 9K 9K 9% gnome-screensav
9 9K 9K 9K 9K 9K 9K 9% Gecko_IOThread
9 9K 9K 9K 9K 9K 9K 9% gdbus
9 9K 9K 9K 9K 9K 9K 9% mozStorag
9 9K 9K 9K 9K 9K 9K 9% vpnc
9 9K 9K 9K 9K 9K 9K 9% mozStorag
9 9K 9K 9K 9K 9K 9K 9% systemd-journal
9 9K 9K 9K 9K 9K 9K 9% Imag
9 9K 9K 9K 9K 9K 9K 9% Cach
9 9K 9K 9K 9K 9K 9K 9% wpa_supplicant
9 9K 9K 9K 9K 9K 9K 9% alsa-sink
9 9K 9K 9K 9K 9K 9K 9% gpm
9 9K 9K 9K 9K 9K 9K 9% dcon
9 9K 9K 9K 9K 9K 9K 9% Medi
9 9K 9K 9K 9K 9K 9K 9% gdbus
9 9K 9K 9K 9K 9K 9K 9% pmdaproc
9 9K 9K 9K 9K 9K 9K 9% J
9 9K 9K 9K 9K 9K 9K 9% kworker/9:9
9 9K 9K 9K 9K 9K 9K 9% pulseaudio
9 9K 9K 9K 9K 9K 9K 9% mozStorag
9 9K 9K 9K 9K 9K 9K 9% gdbus
9 9K 9K 9K 9K 9K 9K 9% systemd
9 9K 9K 9K 9K 9K 9K 9% gnome-session
9 9K 9K 9K 9K 9K 9K 9% gdbus
9 9K 9K 9K 9K 9K 9K 9% jbd9/dm-9-9
9 9K 9K 9K 9K 9K 9K 9% evolution-calen
9 9K 9K 9K 9K 9K 9K 9% deja-dup-monito
9 9K 9K 9K 9K 9K 9K 9% jbd9/dm-9-9
9 9K 9K 9K 9K 9K 9K 9% flush-9:9
9 9K 9K 9K 9K 9K 9K 9% migration/9
9 9K 9K 9K 9K 9K 9K 9% evolution-addre
9 9K 9K 9K 9K 9K 9K 9% gdbus
9 9K 9K 9K 9K 9K 9K 9% systemd-logind
9 9K 9K 9K 9K 9K 9K 9% pmcd
9 9K 9K 9K 9K 9K 9K 9% dbus-daemon
9 9K 9K 9K 9K 9K 9K 9% HTML
9 9K 9K 9K 9K 9K 9K 9% J
9 9K 9K 9K 9K 9K 9K 9% Socke
9 9K 9K 9K 9K 9K 9K 9% crond
9 9K 9K 9K 9K 9K 9K 9% gdbus
9 9K 9K 9K 9K 9K 9K 9% slogin
9 9K 9K 9K 9K 9K 9K 9% rs:mai
9 9K 9K 9K 9K 9K 9K 9% tracker-miner-f
9 9K 9K 9K 9K 9K 9K 9% kworker/9:9
9 9K 9K 9K 9K 9K 9K 9% DO
9 9K 9K 9K 9K 9K 9K 9% bash
9 9K 9K 9K 9K 9K 9K 9% kworker/9:9
9 9K 9K 9K 9K 9K 9K 9% rtkit-daemon
9 9K 9K 9K 9K 9K 9K 9% flush-9:9
9 9K 9K 9K 9K 9K 9K 9% evolution-alarm
9 9K 9K 9K 9K 9K 9K 9% gvfs-udisks9-vo
9 9K 9K 9K 9K 9K 9K 9% Analysi
9 9K 9K 9K 9K 9K 9K 9% Analysi
9 9K 9K 9K 9K 9K 9K 9% Analysi
9 9K 9K 9K 9K 9K 9K 9% abrt-watch-log
9 9K 9K 9K 9K 9K 9K 9% mozStorag
9 9K 9K 9K 9K 9K 9K 9% bash
9 9K 9K 9K 9K 9K 9K 9% rtkit-daemon
9 9K 9K 9K 9K 9K 9K 9% abrt-applet
9 9K 9K 9K 9K 9K 9K 9% ksoftirqd/9
9 9K 9K 9K 9K 9K 9K 9% gnome-shell-cal
9 9K 9K 9K 9K 9K 9K 9% gdbus
9 9K 9K 9K 9K 9K 9K 9% ksoftirqd/9
9 9K 9K 9K 9K 9K 9K 9% gdbus
9 9K 9K 9K 9K 9K 9K 9% J
9 9K 9K 9K 9K 9K 9K 9% colord
9 9K 9K 9K 9K 9K 9K 9% gdbus
9 9K 9K 9K 9K 9K 9K 9% gdbus
9 9K 9K 9K 9K 9K 9K 9% mozStorag
9 9K 9K 9K 9K 9K 9K 9% gdm-session-wor
9 9K 9K 9K 9K 9K 9K 9% rsyslogd
9 9K 9K 9K 9K 9K 9K 9% watchdog/9
9 9K 9K 9K 9K 9K 9K 9% gdbus
9 9K 9K 9K 9K 9K 9K 9% watchdog/9
9 9K 9K 9K 9K 9K 9K 9% rsyslogd
9 9K 9K 9K 9K 9K 9K 9% udisksd
9 9K 9K 9K 9K 9K 9K 9% watchdog/9
9 9K 9K 9K 9K 9K 9K 9% watchdog/9
9 9K 9K 9K 9K 9K 9K 9% ksoftirqd/9
9 9K 9K 9K 9K 9K 9K 9% udevd
9 9K 9K 9K 9K 9K 9K 9% modem-manager
9 9K 9K 9K 9K 9K 9K 9% abrtd
9 9K 9K 9K 9K 9K 9K 9% kworker/9:9
9 9K 9K 9K 9K 9K 9K 9% gdm-binary
9 9K 9K 9K 9K 9K 9K 9% ksoftirqd/9
9 9K 9K 9K 9K 9K 9K 9% avahi-daemon
9 9K 9K 9K 9K 9K 9K 9% auditd
9 9K 9K 9K 9K 9K 9K 9% gdbus
9 9K 9K 9K 9K 9K 9K 9% kworker/u:9
9 9K 9K 9K 9K 9K 9K 9% gnome-shell
9 9K 9K 9K 9K 9K 9K 9% rpcbind
9 9K 9K 9K 9K 9K 9K 9% threaded-ml
9 9K 9K 9K 9K 9K 9K 9% auditd
9 9K 9K 9K 9K 9K 9K 9% colord-sane
9 9K 9K 9K 9K 9K 9K 9% dhclient
9 9K 9K 9K 9K 9K 9K 9% kworker/9:9H
9 9K 9K 9K 9K 9K 9K 9% mozStorag
9 9K 9K 9K 9K 9K 9K 9% J
9 9K 9K 9K 9K 9K 9K 9% DO
9 9K 9K 9K 9K 9K 9K 9% accounts-daemon
9 9K 9K 9K 9K 9K 9K 9% kworker/u:9
9 9K 9K 9K 9K 9K 9K 9% python
9 9K 9K 9K 9K 9K 9K 9% DO
9 9K 9K 9K 9K 9K 9K 9% gnome-keyring-d
9 9K 9K 9K 9K 9K 9K 9% kauditd
9 9K 9K 9K 9K 9K 9K 9% gdbus
9 9K 9K 9K 9K 9K 9K 9% kworker/9:9H
9 9K 9K 9K 9K 9K 9K 9% dcon
9 9K 9K 9K 9K 9K 9K 9% tracker-store
9 9K 9K 9K 9K 9K 9K 9% kthreadd
9 9K 9K 9K 9K 9K 9K 9% khubd
9 9K 9K 9K 9K 9K 9K 9% gvfsd
9 9K 9K 9K 9K 9K 9K 9% pool
9 9K 9K 9K 9K 9K 9K 9% pmlogger
9 9K 9K 9K 9K 9K 9K 9% Cach
9 9K 9K 9K 9K 9K 9K 9% threaded-ml
9 9K 9K 9K 9K 9K 9K 9% kworker/u:9
9 9K 9K 9K 9K 9K 9K 9% migration/9
9 9K 9K 9K 9K 9K 9K 9% threaded-ml
9 9K 9K 9K 9K 9K 9K 9% smartd
9 9K 9K 9K 9K 9K 9K 9% migration/9
9 9K 9K 9K 9K 9K 9K 9% bluetoothd
9 9K 9K 9K 9K 9K 9K 9% rpc.statd
9 9K 9K 9K 9K 9K 9K 9% bash
9 9K 9K 9K 9K 9K 9K 9% jbd9/dm-9-9
9 9K 9K 9K 9K 9K 9K 9% imsettings-daem
9 9K 9K 9K 9K 9K 9K 9% dhclient
9 9K 9K 9K 9K 9K 9K 9% threaded-ml
9 9K 9K 9K 9K 9K 9K 9% gdm-simple-slav
9 9K 9K 9K 9K 9K 9K 9% migration/9
9 9K 9K 9K 9K 9K 9K 9% gdbus
9 9K 9K 9K 9K 9K 9K 9% dconf-service
9 9K 9K 9K 9K 9K 9K 9% dcon
9 9K 9K 9K 9K 9K 9K 9% gsd-printer
9 9K 9K 9K 9K 9K 9K 9% gconfd-9
9 9K 9K 9K 9K 9K 9K 9% gdbus
9 9K 9K 9K 9K 9K 9K 9% gdbus
9 9K 9K 9K 9K 9K 9K 9% mozStorag
9 9K 9K 9K 9K 9K 9K 9% atd
9 9K 9K 9K 9K 9K 9K 9% kdevtmpfs
9 9K 9K 9K 9K 9K 9K 9% threaded-ml
9 9K 9K 9K 9K 9K 9K 9% gdbus
9 9K 9K 9K 9K 9K 9K 9% abrt-watch-log
9 9K 9K 9K 9K 9K 9K 9% bdi-default
9 9K 9K 9K 9K 9K 9K 9% gdbus
9 9K 9K 9K 9K 9K 9K 9% pmdasample
9 9K 9K 9K 9K 9K 9K 9% gvfs-gphoto9-vo
9 9K 9K 9K 9K 9K 9K 9% sshd
9 9K 9K 9K 9K 9K 9K 9% thunderbird
9 9K 9K 9K 9K 9K 9K 9% thunderbird
9 9K 9K 9K 9K 9K 9K 9% kworker/9:9H
9 9K 9K 9K 9K 9K 9K 9% thunderbird
9 9K 9K 9K 9K 9K 9K 9% thunderbird
9 9K 9K 9K 9K 9K 9K 9% thunderbird
9 9K 9K 9K 9K 9K 9K 9% goa-daemon
9 9K 9K 9K 9K 9K 9K 9% thunderbird
9 9K 9K 9K 9K 9K 9K 9% ibus-dconf
9 9K 9K 9K 9K 9K 9K 9% thunderbird
9 9K 9K 9K 9K 9K 9K 9% thunderbird
9 9K 9K 9K 9K 9K 9K 9% gvfsd-trash
9 9K 9K 9K 9K 9K 9K 9% thunderbird
9 9K 9K 9K 9K 9K 9K 9% thunderbird
9 9K 9K 9K 9K 9K 9K 9% gvfsd-http
9 9K 9K 9K 9K 9K 9K 9% rtkit-daemon
9 9K 9K 9K 9K 9K 9K 9% thunderbird
9 9K 9K 9K 9K 9K 9K 9% gvfsd-metadata
9 9K 9K 9K 9K 9K 9K 9% thunderbird
9 9K 9K 9K 9K 9K 9K 9% thunderbird
9 9K 9K 9K 9K 9K 9K 9% gdbus
9 9K 9K 9K 9K 9K 9K 9% thunderbird
9 9K 9K 9K 9K 9K 9K 9% nm-vpnc-service
9 9K 9K 9K 9K 9K 9K 9% dcon
9 9K 9K 9K 9K 9K 9K 9% mozStorag
9 9K 9K 9K 9K 9K 9K 9% gdbus
9 9K 9K 9K 9K 9K 9K 9% udevd
9 9K 9K 9K 9K 9K 9K 9% fsnotify_mark
9 9K 9K 9K 9K 9K 9K 9% mozStorag
9 9K 9K 9K 9K 9K 9K 9% mozStorag
9 9K 9K 9K 9K 9K 9K 9% gvfsd-burn
9 9K 9K 9K 9K 9K 9K 9% mozStorag
9 9K 9K 9K 9K 9K 9K 9% threaded-ml
9 9K 9K 9K 9K 9K 9K 9% gdbus
9 9K 9K 9K 9K 9K 9K 9% pmdasimple
9 9K 9K 9K 9K 9K 9K 9% HTML
9 9K 9K 9K 9K 9K 9K 9% at-spi-bus-laun
9 9K 9K 9K 9K 9K 9K 9% kworker/9:9H
9 9K 9K 9K 9K 9K 9K 9% dcon
9 9K 9K 9K 9K 9K 9K 9% mozStorag
9 9K 9K 9K 9K 9K 9K 9% gdbus
9 9K 9K 9K 9K 9K 9K 9% mcelog
9 9K 9K 9K 9K 9K 9K 9% gvfs-fuse-daemo
9 9K 9K 9K 9K 9K 9K 9% dcon
9 9K 9K 9K 9K 9K 9K 9% dcon
9 9K 9K 9K 9K 9K 9K 9% scsi_eh_9
9 9K 9K 9K 9K 9K 9K 9% gdbus
9 9K 9K 9K 9K 9K 9K 9% dcon
9 9K 9K 9K 9K 9K 9K 9% gvfs-afc-volume
9 9K 9K 9K 9K 9K 9K 9% gnome-pty-helpe
9 9K 9K 9K 9K 9K 9K 9% cleanup
9 9K 9K 9K 9K 9K 9K 9% gdbus
9 9K 9K 9K 9K 9K 9K 9% rsyslogd
9 9K 9K 9K 9K 9K 9K 9% gdbus
9 9K 9K 9K 9K 9K 9K 9% gdbus
9 9K 9K 9K 9K 9K 9K 9% kworker/u:9H
9 9K 9K 9K 9K 9K 9K 9% flush-9:9
9 9K 9K 9K 9K 9K 9K 9% scsi_eh_9
9 9K 9K 9K 9K 9K 9K 9% gvfs-fuse-daemo
9 9K 9K 9K 9K 9K 9K 9% udevd
9 9K 9K 9K 9K 9K 9K 9% dcon
9 9K 9K 9K 9K 9K 9K 9% dcon
9 9K 9K 9K 9K 9K 9K 9% gdbus
9 9K 9K 9K 9K 9K 9K 9% gdbus
9 9K 9K 9K 9K 9K 9K 9% alsa-source
9 9K 9K 9K 9K 9K 9K 9% kworker/u:9H
9 9K 9K 9K 9K 9K 9K 9% gdbus
9 9K 9K 9K 9K 9K 9K 9% mozStorag
9 9K 9K 9K 9K 9K 9K 9% gdbus
9 9K 9K 9K 9K 9K 9K 9% dcon
9 9K 9K 9K 9K 9K 9K 9% system-setup-ke
9 9K 9K 9K 9K 9K 9K 9% gdbus
9 9K 9K 9K 9K 9K 9K 9% dcon
9 9K 9K 9K 9K 9K 9K 9% scsi_eh_9
9 9K 9K 9K 9K 9K 9K 9% gdbus
9 9K 9K 9K 9K 9K 9K 9% gmain
9 9K 9K 9K 9K 9K 9K 9% dcon
9 9K 9K 9K 9K 9K 9K 9% dcon
9 9K 9K 9K 9K 9K 9K 9% dcon
9 9K 9K 9K 9K 9K 9K 9% irq/9-mei
9 9K 9K 9K 9K 9K 9K 9% mozStorag
9 9K 9K 9K 9K 9K 9K 9% gvfs-fuse-sub
9 9K 9K 9K 9K 9K 9K 9% gvfs-afc-volume
9 9K 9K 9K 9K 9K 9K 9% gdbus
9 9K 9K 9K 9K 9K 9K 9% gmain
9 9K 9K 9K 9K 9K 9K 9% dcon
9 9K 9K 9K 9K 9K 9K 9% gmain
9 9K 9K 9K 9K 9K 9K 9% kworker/9:9H
9 9K 9K 9K 9K 9K 9K 9% mozStorag
9 9K 9K 9K 9K 9K 9K 9% dbus-launch
9 9K 9K 9K 9K 9K 9K 9% gdbus
9 9K 9K 9K 9K 9K 9K 9% dcon
9 9K 9K 9K 9K 9K 9K 9% gmain
9 9K 9K 9K 9K 9K 9K 9% Gecko_IOThread
9 9K 9K 9K 9K 9K 9K 9% dcon
9 9K 9K 9K 9K 9K 9K 9% dispatch
9 9K 9K 9K 9K 9K 9K 9% dcon
9 9K 9K 9K 9K 9K 9K 9% StreamTran
9 9K 9K 9K 9K 9K 9K 9% gmain
9 9K 9K 9K 9K 9K 9K 9% dcon
9 9K 9K 9K 9K 9K 9K 9% dispatch
9 9K 9K 9K 9K 9K 9K 9% dcon
9 9K 9K 9K 9K 9K 9K 9% avahi-daemon
9 9K 9K 9K 9K 9K 9K 9% krfcommd
9 9K 9K 9K 9K 9K 9K 9% gmain
9 9K 9K 9K 9K 9K 9K 9% gmain
9 9K 9K 9K 9K 9K 9K 9% gmain
9 9K 9K 9K 9K 9K 9K 9% dispatch
9 9K 9K 9K 9K 9K 9K 9% gmain
9 9K 9K 9K 9K 9K 9K 9% scsi_eh_9
9 9K 9K 9K 9K 9K 9K 9% Han
9 9K 9K 9K 9K 9K 9K 9% dispatch
9 9K 9K 9K 9K 9K 9K 9% kworker/9:9
9 9K 9K 9K 9K 9K 9K 9% kworker/9:9H
9 9K 9K 9K 9K 9K 9K 9% dbus-daemon
9 9K 9K 9K 9K 9K 9K 9% gmain
9 9K 9K 9K 9K 9K 9K 9% gmain
9 9K 9K 9K 9K 9K 9K 9% UR
9 9K 9K 9K 9K 9K 9K 9% kworker/9:9H
9 9K 9K 9K 9K 9K 9K 9% Cer
9 9K 9K 9K 9K 9K 9K 9% scsi_eh_9
9 9K 9K 9K 9K 9K 9K 9% scsi_eh_9
9 9K 9K 9K 9K 9K 9K 9% gmain
9 9K 9K 9K 9K 9K 9K 9% ext9-dio-unwrit
9 9K 9K 9K 9K 9K 9K 9% dbus-daemon
9 9K 9K 9K 9K 9K 9K 9% kswapd9
9 9K 9K 9K 9K 9K 9K 9% gmain
9 9K 9K 9K 9K 9K 9K 9% gvfs-fuse-daemo
9 9K 9K 9K 9K 9K 9K 9% kworker/9:9
9 9K 9K 9K 9K 9K 9K 9% gmain
9 9K 9K 9K 9K 9K 9K 9% Prox
9 9K 9K 9K 9K 9K 9K 9% ksmd
9 9K 9K 9K 9K 9K 9K 9% gmain
9 9K 9K 9K 9K 9K 9K 9% kworker/9:9
9 9K 9K 9K 9K 9K 9K 9% jbd9/dm-9-9
9 9K 9K 9K 9K 9K 9K 9% ext9-dio-unwrit
9 9K 9K 9K 9K 9K 9K 9% gnome-keyring-d
9 9K 9K 9K 9K 9K 9K 9% firefox
9 9K 9K 9K 9K 9K 9K 9% timer
9 9K 9K 9K 9K 9K 9K 9% firefox
9 9K 9K 9K 9K 9K 9K 9% NetworkManager
9 9K 9K 9K 9K 9K 9K 9% pool
9 9K 9K 9K 9K 9K 9K 9% Han
9 9K 9K 9K 9K 9K 9K 9% ext9-dio-unwrit
9 9K 9K 9K 9K 9K 9K 9% deferwq
9 9K 9K 9K 9K 9K 9K 9% ext9-dio-unwrit
9 9K 9K 9K 9K 9K 9K 9% pool
9 9K 9K 9K 9K 9K 9K 9% kdmflush
9 9K 9K 9K 9K 9K 9K 9% kworker/9:9H
9 9K 9K 9K 9K 9K 9K 9% pool
9 9K 9K 9K 9K 9K 9K 9% kworker/9:9
9 9K 9K 9K 9K 9K 9K 9% kdmflush
9 9K 9K 9K 9K 9K 9K 9% kdmflush
9 9K 9K 9K 9K 9K 9K 9% kdmflush
9 9K 9K 9K 9K 9K 9K 9% kworker/9:9
9 9K 9K 9K 9K 9K 9K 9% Cer
9 9K 9K 9K 9K 9K 9K 9% kpsmoused
9 9K 9K 9K 9K 9K 9K 9% iwlwifi
9 9K 9K 9K 9K 9K 9K 9% kworker/9:9
9 9K 9K 9K 9K 9K 9K 9% rpciod
9 9K 9K 9K 9K 9K 9K 9% crypto
9 9K 9K 9K 9K 9K 9K 9% kthrotld
9 9K 9K 9K 9K 9K 9K 9% hd-audio9
9 9K 9K 9K 9K 9K 9K 9% kdmflush
9 9K 9K 9K 9K 9K 9K 9% cpuset
9 9K 9K 9K 9K 9K 9K 9% hci9
9 9K 9K 9K 9K 9K 9K 9% kvm-irqfd-clean
9 9K 9K 9K 9K 9K 9K 9% cfg9
9 9K 9K 9K 9K 9K 9K 9% ktpacpid
9 9K 9K 9K 9K 9K 9K 9% md
9 9K 9K 9K 9K 9K 9K 9% ata_sff
9 9K 9K 9K 9K 9K 9K 9% netns
9 9K 9K 9K 9K 9K 9K 9% khelper
9 9K 9K 9K 9K 9K 9K 9% kblockd
9 9K 9K 9K 9K 9K 9K 9% kintegrityd
9 9K 9K 9K 9K 9K 9K 9% rcu_bh
ATOP - Day Month 9 9:9:9 9 9:9:9 elapsed
PRC | sys 9h9m | user 9h9m | #proc 9 | #zombie 9
CPU | sys 9% | user 9% | irq 9% | idle 9% | wait 9% |
cpu | sys 9% | user 9% | irq 9% | idle 9% | cpu9 9% |
cpu | sys 9% | user 9% | irq 9% | idle 9% | cpu9 9% |
CPL | avg9 9 | avg9 9 | avg9 9 | csw 9 | intr 9 |
MEM | tot 9M | free 9M | cache 9M | buff 9M | slab 9M |
SWP | tot 9G | free 9G | | vmcom 9G | vmlim 9G |
PAG | scan 9 | steal 9 | stall 9 | swin 9 | swout 9 |
LVM | x | | read 9 | write 9 |
LVM | x | | read 9 | write 9 |
LVM | x | | read 9 | write 9 |
LVM | x | | read 9 | write 9 |
LVM | x | | read 9 | write 9 |
DSK | sda | busy 9% | read 9 | write 9 | avio 9 ms |
NET | transport | tcpi 9M | tcpo 9M | udpi 9M | udpo 9M |
NET | network | ipi 9M | ipo 9M | ipfrw 9M | deliv 9M |
NET | lo | pcki 9M | pcko 9M | si 9 Kbps | so 9 Kpbs |
NET | em9 | pcki 9M | pcko 9M | si 9 Kbps | so 9 Kpbs |
NET | wlan9 | pcki 9M | pcko 9M | si 9 Kbps | so 9 Kpbs |
NET | tun9 | pcki 9M | pcko 9M | si 9 Kbps | so 9 Kpbs |
PID SYSCPU USRCPU VGROW RGROW RUID THR ST EXC S CPU CMD
9 9m9s 9h9m 9K 9K scox - -- - S 9% firefox
9 9m9s 9m9s 9K 9K root - -- - S 9% Xorg
9 9m9s 9m9s 9K 9K scox - -- - S 9% gnome-shell
9 9m9s 9h9m 9K 9K scox - -- - S 9% Timer
9 9m9s 9m9s 9K 9K scox - -- - S 9% gdbus
9 9s 9m9s 9K 9K scox - -- - S 9% emacs
9 9s 9m9s 9K 9K scox - -- - S 9% thunderbird
9 9m9s 9m9s 9K 9K scox - -- - S 9% ibus-x9
9 9m9s 9m9s 9K 9K scox - -- - S 9% ibus-daemon
9 9s 9m9s 9K 9K scox - -- - S 9% xchat
9 9s 9m9s 9K 9K scox - -- - S 9% vino-server
9 9m9s 9m9s 9K 9K scox - -- - S 9% gdbus
9 9s 9m9s 9K 9K scox - -- - S 9% gnome-settings-
9 9s 9m9s 9K 9K scox - -- - S 9% gnome-terminal
9 9s 9m9s 9K 9K root - -- - S 9% polkitd
9 9s 9s 9K 9K dbus - -- - S 9% dbus-daemon
9 9s 9m9s 9K 9K root - -- - S 9% gdbus
9 9h9m 9s 9K 9K scox - -- - S 9% UR
9 9s 9s 9K 9K root - -- - S 9% NetworkManager
9 9s 9s 9K 9K root - -- - S 9% cupsd
9 9h9m 9s 9K 9K scox - -- - S 9% Socke
9 9s 9s 9K 9K scox - -- - S 9% gdbus
9 9s 9s 9K 9K root - -- - S 9% rcu_sched
9 9s 9s 9K 9K scox - -- - S 9% gdbus
9 9s 9s 9K 9K lp - -- - S 9% cups-polld
9 9s 9s 9K 9K scox - -- - S 9% J
9 9s 9s 9K 9K scox - -- - S 9% ibus-ui-gtk9
9 9s 9m9s 9K 9K scox - -- - S 9% Timer
9 9h9m 9s 9K 9K scox - -- - S 9% XPCO
9 9s 9s 9K 9K scox - -- - S 9% ibus-engine-sim
9 9s 9s 9K 9K scox - -- - S 9% J
9 9s 9s 9K 9K scox - -- - S 9% nm-applet
9 9s 9m9s 9K 9K scox - -- - S 9% gdbus
9 9s 9s 9K 9K root - -- - S 9% gdbus
9 9s 9s 9K 9K root - -- - S 9% irqbalance
9 9s 9s 9K 9K root - -- - S 9% acpid
9 9s 9s 9K 9K root - -- - S 9% khugepaged
9 9s 9s 9K 9K scox - -- - S 9% mission-control
9 9s 9s 9K 9K root - -- - S 9% upowerd
9 9m9s 9s 9K 9K scox - -- - S 9% XPCO
9 9s 9s 9K 9K scox - -- - S 9% gnome-screensav
9 9m9s 9h9m 9K 9K scox - -- - S 9% Gecko_IOThread
9 9s 9m9s 9K 9K scox - -- - S 9% gdbus
9 9h9m 9s 9K 9K scox - -- - S 9% mozStorag
9 9s 9s 9K 9K root - -- - S 9% vpnc
9 9h9m 9s 9K 9K scox - -- - S 9% mozStorag
9 9s 9s 9K 9K root - -- - S 9% systemd-journal
9 9h9m 9s 9K 9K scox - -- - S 9% Imag
9 9h9m 9s 9K 9K scox - -- - S 9% Cach
9 9s 9s 9K 9K root - -- - S 9% wpa_supplicant
9 9s 9s 9K 9K scox - -- - S 9% alsa-sink
9 9s 9s 9K 9K root - -- - S 9% gpm
9 9m9s 9s 9K 9K scox - -- - S 9% dcon
9 9h9m 9s 9K 9K scox - -- - S 9% Medi
9 9s 9m9s 9K 9K scox - -- - S 9% gdbus
9 9s 9s 9K 9K root - -- - R 9% pmdaproc
9 9h9m 9s 9K 9K scox - -- - S 9% J
9 9s 9s 9K 9K root - -- - S 9% kworker/9:9
9 9s 9s 9K 9K scox - -- - S 9% pulseaudio
9 9h9m 9s 9K 9K scox - -- - S 9% mozStorag
9 9m9s 9h9m 9K 9K scox - -- - S 9% gdbus
9 9s 9s 9K 9K root - -- - S 9% systemd
9 9s 9s 9K 9K scox - -- - S 9% gnome-session
9 9s 9m9s 9K 9K scox - -- - S 9% gdbus
9 9s 9s 9K 9K root - -- - S 9% jbd9/dm-9-9
9 9s 9s 9K 9K scox - -- - S 9% evolution-calen
9 9s 9s 9K 9K scox - -- - S 9% deja-dup-monito
9 9s 9s 9K 9K root - -- - S 9% jbd9/dm-9-9
9 9s 9s 9K 9K root - -- - S 9% flush-9:9
9 9s 9s 9K 9K root - -- - S 9% migration/9
9 9s 9s 9K 9K scox - -- - S 9% evolution-addre
9 9m9s 9m9s 9K 9K scox - -- - S 9% gdbus
9 9s 9s 9K 9K root - -- - S 9% systemd-logind
9 9s 9s 9K 9K pcp - -- - S 9% pmcd
9 9s 9s 9K 9K scox - -- - S 9% dbus-daemon
9 9h9m 9s 9K 9K scox - -- - S 9% HTML
9 9s 9s 9K 9K scox - -- - S 9% J
9 9m9s 9s 9K 9K scox - -- - S 9% Socke
9 9s 9s 9K 9K root - -- - S 9% crond
9 9s 9s 9K 9K scox - -- - S 9% gdbus
9 9s 9s 9K 9K scox - -- - S 9% slogin
9 9s 9s 9K 9K root - -- - S 9% rs:mai
9 9s 9s 9K 9K scox - -- - S 9% tracker-miner-f
9 9s 9s 9K 9K root - -- - S 9% kworker/9:9
9 9h9m 9s 9K 9K scox - -- - S 9% DO
9 9s 9s 9K 9K scox - -- - S 9% bash
9 9s 9s 9K 9K root - -- - S 9% kworker/9:9
9 9s 9s 9K 9K rtkit - -- - S 9% rtkit-daemon
9 9s 9s 9K 9K root - -- - S 9% flush-9:9
9 9s 9s 9K 9K scox - -- - S 9% evolution-alarm
9 9s 9s 9K 9K scox - -- - S 9% gvfs-udisks9-vo
9 9h9m 9s 9K 9K scox - -- - S 9% Analysi
9 9h9m 9s 9K 9K scox - -- - S 9% Analysi
9 9h9m 9s 9K 9K scox - -- - S 9% Analysi
9 9s 9s 9K 9K root - -- - S 9% abrt-watch-log
9 9h9m 9s 9K 9K scox - -- - S 9% mozStorag
9 9s 9s 9K 9K scox - -- - S 9% bash
9 9s 9s 9K 9K rtkit - -- - S 9% rtkit-daemon
9 9s 9s 9K 9K scox - -- - S 9% abrt-applet
9 9s 9s 9K 9K root - -- - S 9% ksoftirqd/9
9 9s 9s 9K 9K scox - -- - S 9% gnome-shell-cal
9 9s 9s 9K 9K colord - -- - S 9% gdbus
9 9s 9s 9K 9K root - -- - S 9% ksoftirqd/9
9 9s 9s 9K 9K root - -- - S 9% gdbus
9 9m9s 9s 9K 9K scox - -- - S 9% J
9 9s 9s 9K 9K colord - -- - S 9% colord
9 9s 9s 9K 9K root - -- - S 9% gdbus
9 9s 9s 9K 9K root - -- - S 9% gdbus
9 9m9s 9s 9K 9K scox - -- - S 9% mozStorag
9 9s 9s 9K 9K root - -- - S 9% gdm-session-wor
9 9s 9s 9K 9K root - -- - S 9% rsyslogd
9 9s 9s 9K 9K root - -- - S 9% watchdog/9
9 9s 9m9s 9K 9K scox - -- - S 9% gdbus
9 9s 9s 9K 9K root - -- - S 9% watchdog/9
9 9s 9s 9K 9K root - -- - S 9% rsyslogd
9 9s 9s 9K 9K root - -- - S 9% udisksd
9 9s 9s 9K 9K root - -- - S 9% watchdog/9
9 9s 9s 9K 9K root - -- - S 9% watchdog/9
9 9s 9s 9K 9K root - -- - S 9% ksoftirqd/9
9 9s 9s 9K 9K root - -- - S 9% udevd
9 9s 9s 9K 9K root - -- - S 9% modem-manager
9 9s 9s 9K 9K root - -- - S 9% abrtd
9 9s 9s 9K 9K root - -- - S 9% kworker/9:9
9 9s 9s 9K 9K root - -- - S 9% gdm-binary
9 9s 9s 9K 9K root - -- - S 9% ksoftirqd/9
9 9s 9s 9K 9K avahi - -- - S 9% avahi-daemon
9 9s 9s 9K 9K root - -- - S 9% auditd
9 9s 9s 9K 9K scox - -- - S 9% gdbus
9 9s 9s 9K 9K root - -- - S 9% kworker/u:9
9 9m9s 9m9s 9K 9K scox - -- - S 9% gnome-shell
9 9s 9s 9K 9K rpc - -- - S 9% rpcbind
9 9m9s 9m9s 9K 9K scox - -- - S 9% threaded-ml
9 9s 9s 9K 9K root - -- - S 9% auditd
9 9s 9s 9K 9K colord - -- - S 9% colord-sane
9 9s 9s 9K 9K root - -- - S 9% dhclient
9 9s 9s 9K 9K root - -- - S 9% kworker/9:9H
9 9m9s 9s 9K 9K scox - -- - S 9% mozStorag
9 9s 9s 9K 9K scox - -- - S 9% J
9 9h9m 9s 9K 9K scox - -- - S 9% DO
9 9s 9s 9K 9K root - -- - S 9% accounts-daemon
9 9s 9s 9K 9K root - -- - S 9% kworker/u:9
9 9s 9s 9K 9K scox - -- - S 9% python
9 9h9m 9s 9K 9K scox - -- - S 9% DO
9 9s 9s 9K 9K scox - -- - S 9% gnome-keyring-d
9 9s 9s 9K 9K root - -- - S 9% kauditd
9 9s 9s 9K 9K scox - -- - S 9% gdbus
9 9s 9s 9K 9K root - -- - S 9% kworker/9:9H
9 9m9s 9s 9K 9K scox - -- - S 9% dcon
9 9s 9s 9K 9K scox - -- - S 9% tracker-store
9 9s 9s 9K 9K root - -- - S 9% kthreadd
9 9s 9s 9K 9K root - -- - S 9% khubd
9 9s 9s 9K 9K scox - -- - S 9% gvfsd
9 9s 9s 9K 9K scox - -- - S 9% pool
9 9s 9s 9K 9K scox - -- - S 9% pmlogger
9 9m9s 9s 9K 9K scox - -- - S 9% Cach
9 9m9s 9h9m 9K 9K scox - -- - S 9% threaded-ml
9 9s 9s 9K 9K root - -- - S 9% kworker/u:9
9 9s 9s 9K 9K root - -- - S 9% migration/9
9 9s 9m9s 9K 9K scox - -- - S 9% threaded-ml
9 9s 9s 9K 9K root - -- - S 9% smartd
9 9s 9s 9K 9K root - -- - S 9% migration/9
9 9s 9s 9K 9K root - -- - S 9% bluetoothd
9 9s 9s 9K 9K rpcuser - -- - S 9% rpc.statd
9 9s 9s 9K 9K scox - -- - S 9% bash
9 9s 9s 9K 9K root - -- - S 9% jbd9/dm-9-9
9 9s 9s 9K 9K scox - -- - S 9% imsettings-daem
9 9s 9s 9K 9K root - -- - S 9% dhclient
9 9s 9m9s 9K 9K scox - -- - S 9% threaded-ml
9 9s 9s 9K 9K root - -- - S 9% gdm-simple-slav
9 9s 9s 9K 9K root - -- - S 9% migration/9
9 9s 9s 9K 9K scox - -- - S 9% gdbus
9 9s 9s 9K 9K scox - -- - S 9% dconf-service
9 9m9s 9s 9K 9K scox - -- - S 9% dcon
9 9s 9s 9K 9K scox - -- - S 9% gsd-printer
9 9s 9s 9K 9K scox - -- - S 9% gconfd-9
9 9s 9s 9K 9K scox - -- - S 9% gdbus
9 9s 9s 9K 9K scox - -- - S 9% gdbus
9 9h9m 9s 9K 9K scox - -- - S 9% mozStorag
9 9s 9s 9K 9K root - -- - S 9% atd
9 9s 9s 9K 9K root - -- - S 9% kdevtmpfs
9 9m9s 9m9s 9K 9K scox - -- - S 9% threaded-ml
9 9s 9s 9K 9K scox - -- - S 9% gdbus
9 9s 9s 9K 9K root - -- - S 9% abrt-watch-log
9 9s 9s 9K 9K root - -- - S 9% bdi-default
9 9s 9s 9K 9K scox - -- - S 9% gdbus
9 9s 9s 9K 9K pcp - -- - S 9% pmdasample
9 9s 9s 9K 9K scox - -- - S 9% gvfs-gphoto9-vo
9 9s 9s 9K 9K root - -- - S 9% sshd
9 9s 9m9s 9K 9K scox - -- - S 9% thunderbird
9 9s 9m9s 9K 9K scox - -- - S 9% thunderbird
9 9s 9s 9K 9K root - -- - S 9% kworker/9:9H
9 9s 9m9s 9K 9K scox - -- - S 9% thunderbird
9 9s 9m9s 9K 9K scox - -- - S 9% thunderbird
9 9s 9m9s 9K 9K scox - -- - S 9% thunderbird
9 9s 9s 9K 9K scox - -- - S 9% goa-daemon
9 9s 9m9s 9K 9K scox - -- - S 9% thunderbird
9 9s 9s 9K 9K scox - -- - S 9% ibus-dconf
9 9s 9m9s 9K 9K scox - -- - S 9% thunderbird
9 9s 9m9s 9K 9K scox - -- - S 9% thunderbird
9 9s 9s 9K 9K scox - -- - S 9% gvfsd-trash
9 9s 9m9s 9K 9K scox - -- - S 9% thunderbird
9 9s 9m9s 9K 9K scox - -- - S 9% thunderbird
9 9s 9s 9K 9K scox - -- - S 9% gvfsd-http
9 9s 9s 9K 9K rtkit - -- - S 9% rtkit-daemon
9 9s 9m9s 9K 9K scox - -- - S 9% thunderbird
9 9s 9s 9K 9K scox - -- - S 9% gvfsd-metadata
9 9s 9m9s 9K 9K scox - -- - S 9% thunderbird
9 9s 9m9s 9K 9K scox - -- - S 9% thunderbird
9 9s 9s 9K 9K scox - -- - S 9% gdbus
9 9s 9m9s 9K 9K scox - -- - S 9% thunderbird
9 9s 9s 9K 9K root - -- - S 9% nm-vpnc-service
9 9s 9s 9K 9K scox - -- - S 9% dcon
9 9h9m 9s 9K 9K scox - -- - S 9% mozStorag
9 9s 9s 9K 9K scox - -- - S 9% gdbus
9 9s 9s 9K 9K root - -- - S 9% udevd
9 9s 9s 9K 9K root - -- - S 9% fsnotify_mark
9 9m9s 9s 9K 9K scox - -- - S 9% mozStorag
9 9m9s 9s 9K 9K scox - -- - S 9% mozStorag
9 9s 9s 9K 9K scox - -- - S 9% gvfsd-burn
9 9h9m 9s 9K 9K scox - -- - S 9% mozStorag
9 9s 9m9s 9K 9K scox - -- - S 9% threaded-ml
9 9s 9s 9K 9K scox - -- - S 9% gdbus
9 9s 9s 9K 9K pcp - -- - S 9% pmdasimple
9 9m9s 9s 9K 9K scox - -- - S 9% HTML
9 9s 9s 9K 9K scox - -- - S 9% at-spi-bus-laun
9 9s 9s 9K 9K root - -- - S 9% kworker/9:9H
9 9s 9s 9K 9K scox - -- - S 9% dcon
9 9h9m 9s 9K 9K scox - -- - S 9% mozStorag
9 9s 9s 9K 9K scox - -- - S 9% gdbus
9 9s 9s 9K 9K root - -- - S 9% mcelog
9 9s 9s 9K 9K scox - -- - S 9% gvfs-fuse-daemo
9 9s 9s 9K 9K scox - -- - S 9% dcon
9 9s 9s 9K 9K scox - -- - S 9% dcon
9 9s 9s 9K 9K root - -- - S 9% scsi_eh_9
9 9s 9s 9K 9K colord - -- - S 9% gdbus
9 9s 9s 9K 9K scox - -- - S 9% dcon
9 9s 9s 9K 9K scox - -- - S 9% gvfs-afc-volume
9 9s 9s 9K 9K scox - -- - S 9% gnome-pty-helpe
9 9s 9s 9K 9K root - -- - S 9% cleanup
9 9s 9s 9K 9K scox - -- - S 9% gdbus
9 9s 9s 9K 9K root - -- - S 9% rsyslogd
9 9s 9s 9K 9K root - -- - S 9% gdbus
9 9s 9s 9K 9K scox - -- - S 9% gdbus
9 9s 9s 9K 9K root - -- - S 9% kworker/u:9H
9 9s 9s 9K 9K root - -- - S 9% flush-9:9
9 9s 9s 9K 9K root - -- - S 9% scsi_eh_9
9 9s 9s 9K 9K scox - -- - S 9% gvfs-fuse-daemo
9 9s 9s 9K 9K root - -- - S 9% udevd
9 9s 9s 9K 9K scox - -- - S 9% dcon
9 9s 9s 9K 9K scox - -- - S 9% dcon
9 9s 9s 9K 9K scox - -- - S 9% gdbus
9 9s 9s 9K 9K scox - -- - S 9% gdbus
9 9s 9s 9K 9K scox - -- - S 9% alsa-source
9 9s 9s 9K 9K root - -- - S 9% kworker/u:9H
9 9s 9s 9K 9K scox - -- - S 9% gdbus
9 9m9s 9s 9K 9K scox - -- - S 9% mozStorag
9 9s 9s 9K 9K scox - -- - S 9% gdbus
9 9s 9s 9K 9K scox - -- - S 9% dcon
9 9s 9s 9K 9K root - -- - S 9% system-setup-ke
9 9s 9s 9K 9K scox - -- - S 9% gdbus
9 9s 9s 9K 9K scox - -- - S 9% dcon
9 9s 9s 9K 9K root - -- - S 9% scsi_eh_9
9 9s 9s 9K 9K scox - -- - S 9% gdbus
9 9s 9s 9K 9K root - -- - S 9% gmain
9 9m9s 9s 9K 9K scox - -- - S 9% dcon
9 9s 9s 9K 9K scox - -- - S 9% dcon
9 9s 9s 9K 9K scox - -- - S 9% dcon
9 9s 9s 9K 9K root - -- - S 9% irq/9-mei
9 9m9s 9s 9K 9K scox - -- - S 9% mozStorag
9 9s 9s 9K 9K scox - -- - S 9% gvfs-fuse-sub
9 9s 9s 9K 9K scox - -- - S 9% gvfs-afc-volume
9 9s 9m9s 9K 9K scox - -- - S 9% gdbus
9 9s 9s 9K 9K scox - -- - S 9% gmain
9 9s 9s 9K 9K scox - -- - S 9% dcon
9 9m9s 9m9s 9K 9K scox - -- - S 9% gmain
9 9s 9s 9K 9K root - -- - S 9% kworker/9:9H
9 9h9m 9s 9K 9K scox - -- - S 9% mozStorag
9 9s 9s 9K 9K scox - -- - S 9% dbus-launch
9 9s 9s 9K 9K scox - -- - S 9% gdbus
9 9m9s 9s 9K 9K scox - -- - S 9% dcon
9 9s 9s 9K 9K root - -- - S 9% gmain
9 9s 9m9s 9K 9K scox - -- - S 9% Gecko_IOThread
9 9h9m 9s 9K 9K scox - -- - S 9% dcon
9 9s 9s 9K 9K scox - -- - S 9% dispatch
9 9m9s 9s 9K 9K scox - -- - S 9% dcon
9 9m9s 9s 9K 9K scox - -- - S 9% StreamTran
9 9s 9s 9K 9K root - -- - S 9% gmain
9 9s 9s 9K 9K scox - -- - S 9% dcon
9 9s 9s 9K 9K scox - -- - S 9% dispatch
9 9s 9s 9K 9K scox - -- - S 9% dcon
9 9s 9s 9K 9K avahi - -- - S 9% avahi-daemon
9 9s 9s 9K 9K root - -- - S 9% krfcommd
9 9s 9s 9K 9K scox - -- - S 9% gmain
9 9s 9s 9K 9K root - -- - S 9% gmain
9 9s 9m9s 9K 9K scox - -- - S 9% gmain
9 9s 9s 9K 9K scox - -- - S 9% dispatch
9 9s 9s 9K 9K scox - -- - S 9% gmain
9 9s 9s 9K 9K root - -- - S 9% scsi_eh_9
9 9h9m 9s 9K 9K scox - -- - S 9% Han
9 9s 9s 9K 9K scox - -- - S 9% dispatch
9 9s 9s 9K 9K root - -- - S 9% kworker/9:9
9 9s 9s 9K 9K root - -- - S 9% kworker/9:9H
9 9s 9s 9K 9K dbus - -- - S 9% dbus-daemon
9 9s 9s 9K 9K scox - -- - S 9% gmain
9 9m9s 9m9s 9K 9K scox - -- - S 9% gmain
9 9m9s 9s 9K 9K scox - -- - S 9% UR
9 9s 9s 9K 9K root - -- - S 9% kworker/9:9H
9 9h9m 9s 9K 9K scox - -- - S 9% Cer
9 9s 9s 9K 9K root - -- - S 9% scsi_eh_9
9 9s 9s 9K 9K root - -- - S 9% scsi_eh_9
9 9s 9s 9K 9K root - -- - S 9% gmain
9 9s 9s 9K 9K root - -- - S 9% ext9-dio-unwrit
9 9s 9s 9K 9K scox - -- - S 9% dbus-daemon
9 9s 9s 9K 9K root - -- - S 9% kswapd9
9 9s 9s 9K 9K scox - -- - S 9% gmain
9 9s 9s 9K 9K scox - -- - S 9% gvfs-fuse-daemo
9 9s 9s 9K 9K root - -- - S 9% kworker/9:9
9 9s 9s 9K 9K root - -- - S 9% gmain
9 9h9m 9s 9K 9K scox - -- - S 9% Prox
9 9s 9s 9K 9K root - -- - S 9% ksmd
9 9s 9s 9K 9K root - -- - S 9% gmain
9 9s 9s 9K 9K root - -- - S 9% kworker/9:9
9 9s 9s 9K 9K root - -- - S 9% jbd9/dm-9-9
9 9s 9s 9K 9K root - -- - S 9% ext9-dio-unwrit
9 9s 9s 9K 9K scox - -- - S 9% gnome-keyring-d
9 9m9s 9h9m 9K 9K scox - -- - S 9% firefox
9 9s 9s 9K 9K scox - -- - S 9% timer
9 9m9s 9h9m 9K 9K scox - -- - S 9% firefox
9 9s 9s 9K 9K root - -- - S 9% NetworkManager
9 9s 9s 9K 9K scox - -- - S 9% pool
9 9m9s 9s 9K 9K scox - -- - S 9% Han
9 9s 9s 9K 9K root - -- - S 9% ext9-dio-unwrit
9 9s 9s 9K 9K root - -- - S 9% deferwq
9 9s 9s 9K 9K root - -- - S 9% ext9-dio-unwrit
9 9s 9s 9K 9K scox - -- - S 9% pool
9 9s 9s 9K 9K root - -- - S 9% kdmflush
9 9s 9s 9K 9K root - -- - S 9% kworker/9:9H
9 9s 9s 9K 9K scox - -- - S 9% pool
9 9s 9s 9K 9K root - -- - S 9% kworker/9:9
9 9s 9s 9K 9K root - -- - S 9% kdmflush
9 9s 9s 9K 9K root - -- - S 9% kdmflush
9 9s 9s 9K 9K root - -- - S 9% kdmflush
9 9s 9s 9K 9K root - -- - S 9% kworker/9:9
9 9m9s 9s 9K 9K scox - -- - S 9% Cer
9 9s 9s 9K 9K root - -- - S 9% kpsmoused
9 9s 9s 9K 9K root - -- - S 9% iwlwifi
9 9s 9s 9K 9K root - -- - S 9% kworker/9:9
9 9s 9s 9K 9K root - -- - S 9% rpciod
9 9s 9s 9K 9K root - -- - S 9% crypto
9 9s 9s 9K 9K root - -- - S 9% kthrotld
9 9s 9s 9K 9K root - -- - S 9% hd-audio9
9 9s 9s 9K 9K root - -- - S 9% kdmflush
9 9s 9s 9K 9K root - -- - S 9% cpuset
9 9s 9s 9K 9K root - -- - S 9% hci9
9 9s 9s 9K 9K root - -- - S 9% kvm-irqfd-clean
9 9s 9s 9K 9K root - -- - S 9% cfg9
9 9s 9s 9K 9K root - -- - S 9% ktpacpid
9 9s 9s 9K 9K root - -- - S 9% md
9 9s 9s 9K 9K root - -- - S 9% ata_sff
9 9s 9s 9K 9K root - -- - S 9% netns
9 9s 9s 9K 9K root - -- - S 9% khelper
9 9s 9s 9K 9K root - -- - S 9% kblockd
9 9s 9s 9K 9K root - -- - S 9% kintegrityd
9 9s 9s 9K 9K root - -- - S 9% rcu_bh
