QA output created by 943
== Check unprivileged metric access
proc.nprocs COUNT
proc.runq.runnable COUNT
proc.runq.blocked COUNT
proc.runq.sleeping COUNT
proc.runq.stopped COUNT
proc.runq.swapped COUNT
proc.runq.defunct COUNT
proc.runq.unknown COUNT
proc.runq.kernel COUNT
== Check protected per-process metric fetches (expect errors)
proc.psinfo.pid -12387 No permission to perform requested operation
proc.psinfo.cmd -12387 No permission to perform requested operation
proc.psinfo.sname -12387 No permission to perform requested operation
proc.psinfo.ppid -12387 No permission to perform requested operation
proc.psinfo.pgrp -12387 No permission to perform requested operation
proc.psinfo.session -12387 No permission to perform requested operation
proc.psinfo.tty -12387 No permission to perform requested operation
proc.psinfo.tty_pgrp -12387 No permission to perform requested operation
proc.psinfo.flags -12387 No permission to perform requested operation
proc.psinfo.minflt -12387 No permission to perform requested operation
proc.psinfo.cmin_flt -12387 No permission to perform requested operation
proc.psinfo.maj_flt -12387 No permission to perform requested operation
proc.psinfo.cmaj_flt -12387 No permission to perform requested operation
proc.psinfo.utime -12387 No permission to perform requested operation
proc.psinfo.stime -12387 No permission to perform requested operation
proc.psinfo.cutime -12387 No permission to perform requested operation
proc.psinfo.cstime -12387 No permission to perform requested operation
proc.psinfo.priority -12387 No permission to perform requested operation
proc.psinfo.nice -12387 No permission to perform requested operation
proc.psinfo.it_real_value -12387 No permission to perform requested operation
proc.psinfo.start_time -12387 No permission to perform requested operation
proc.psinfo.vsize -12387 No permission to perform requested operation
proc.psinfo.rss -12387 No permission to perform requested operation
proc.psinfo.rss_rlim -12387 No permission to perform requested operation
proc.psinfo.start_code -12387 No permission to perform requested operation
proc.psinfo.end_code -12387 No permission to perform requested operation
proc.psinfo.start_stack -12387 No permission to perform requested operation
proc.psinfo.esp -12387 No permission to perform requested operation
proc.psinfo.eip -12387 No permission to perform requested operation
proc.psinfo.signal -12387 No permission to perform requested operation
proc.psinfo.blocked -12387 No permission to perform requested operation
proc.psinfo.sigignore -12387 No permission to perform requested operation
proc.psinfo.sigcatch -12387 No permission to perform requested operation
proc.psinfo.wchan -12387 No permission to perform requested operation
proc.psinfo.nswap -12387 No permission to perform requested operation
proc.psinfo.cnswap -12387 No permission to perform requested operation
proc.psinfo.exit_signal -12387 No permission to perform requested operation
proc.psinfo.processor -12387 No permission to perform requested operation
proc.psinfo.ttyname -12387 No permission to perform requested operation
proc.psinfo.wchan_s -12387 No permission to perform requested operation
proc.psinfo.psargs -12387 No permission to perform requested operation
proc.psinfo.signal_s -12387 No permission to perform requested operation
proc.psinfo.blocked_s -12387 No permission to perform requested operation
proc.psinfo.sigignore_s -12387 No permission to perform requested operation
proc.psinfo.sigcatch_s -12387 No permission to perform requested operation
proc.psinfo.threads -12387 No permission to perform requested operation
proc.memory.size -12387 No permission to perform requested operation
proc.memory.rss -12387 No permission to perform requested operation
proc.memory.share -12387 No permission to perform requested operation
proc.memory.textrss -12387 No permission to perform requested operation
proc.memory.librss -12387 No permission to perform requested operation
proc.memory.datrss -12387 No permission to perform requested operation
proc.memory.dirty -12387 No permission to perform requested operation
proc.memory.maps -12387 No permission to perform requested operation
proc.memory.vmsize -12387 No permission to perform requested operation
proc.memory.vmlock -12387 No permission to perform requested operation
proc.memory.vmrss -12387 No permission to perform requested operation
proc.memory.vmdata -12387 No permission to perform requested operation
proc.memory.vmstack -12387 No permission to perform requested operation
proc.memory.vmexe -12387 No permission to perform requested operation
proc.memory.vmlib -12387 No permission to perform requested operation
proc.memory.vmswap -12387 No permission to perform requested operation
proc.id.uid -12387 No permission to perform requested operation
proc.id.euid -12387 No permission to perform requested operation
proc.id.suid -12387 No permission to perform requested operation
proc.id.fsuid -12387 No permission to perform requested operation
proc.id.gid -12387 No permission to perform requested operation
proc.id.egid -12387 No permission to perform requested operation
proc.id.sgid -12387 No permission to perform requested operation
proc.id.fsgid -12387 No permission to perform requested operation
proc.id.uid_nm -12387 No permission to perform requested operation
proc.id.euid_nm -12387 No permission to perform requested operation
proc.id.suid_nm -12387 No permission to perform requested operation
proc.id.fsuid_nm -12387 No permission to perform requested operation
proc.id.gid_nm -12387 No permission to perform requested operation
proc.id.egid_nm -12387 No permission to perform requested operation
proc.id.sgid_nm -12387 No permission to perform requested operation
proc.id.fsgid_nm -12387 No permission to perform requested operation
proc.fd.count -12387 No permission to perform requested operation
proc.schedstat.cpu_time -12387 No permission to perform requested operation
proc.schedstat.run_delay -12387 No permission to perform requested operation
proc.schedstat.pcount -12387 No permission to perform requested operation
== Check authentic per-process metric fetches (expect values)
proc.psinfo.pid COUNT
proc.psinfo.cmd COUNT
proc.psinfo.sname COUNT
proc.psinfo.ppid COUNT
proc.psinfo.pgrp COUNT
proc.psinfo.session COUNT
proc.psinfo.tty COUNT
proc.psinfo.tty_pgrp COUNT
proc.psinfo.flags COUNT
proc.psinfo.minflt COUNT
proc.psinfo.cmin_flt COUNT
proc.psinfo.maj_flt COUNT
proc.psinfo.cmaj_flt COUNT
proc.psinfo.utime COUNT
proc.psinfo.stime COUNT
proc.psinfo.cutime COUNT
proc.psinfo.cstime COUNT
proc.psinfo.priority COUNT
proc.psinfo.nice COUNT
proc.psinfo.it_real_value COUNT
proc.psinfo.start_time COUNT
proc.psinfo.vsize COUNT
proc.psinfo.rss COUNT
proc.psinfo.rss_rlim COUNT
proc.psinfo.start_code COUNT
proc.psinfo.end_code COUNT
proc.psinfo.start_stack COUNT
proc.psinfo.esp COUNT
proc.psinfo.eip COUNT
proc.psinfo.signal COUNT
proc.psinfo.blocked COUNT
proc.psinfo.sigignore COUNT
proc.psinfo.sigcatch COUNT
proc.psinfo.wchan COUNT
proc.psinfo.nswap COUNT
proc.psinfo.cnswap COUNT
proc.psinfo.exit_signal COUNT
proc.psinfo.processor COUNT
proc.psinfo.ttyname COUNT
proc.psinfo.wchan_s COUNT
proc.psinfo.psargs COUNT
proc.psinfo.signal_s COUNT
proc.psinfo.blocked_s COUNT
proc.psinfo.sigignore_s COUNT
proc.psinfo.sigcatch_s COUNT
proc.psinfo.threads COUNT
proc.memory.size COUNT
proc.memory.rss COUNT
proc.memory.share COUNT
proc.memory.textrss COUNT
proc.memory.librss COUNT
proc.memory.datrss COUNT
proc.memory.dirty COUNT
proc.memory.maps COUNT
proc.memory.vmsize COUNT
proc.memory.vmlock COUNT
proc.memory.vmrss COUNT
proc.memory.vmdata COUNT
proc.memory.vmstack COUNT
proc.memory.vmexe COUNT
proc.memory.vmlib COUNT
proc.memory.vmswap COUNT
proc.id.uid COUNT
proc.id.euid COUNT
proc.id.suid COUNT
proc.id.fsuid COUNT
proc.id.gid COUNT
proc.id.egid COUNT
proc.id.sgid COUNT
proc.id.fsgid COUNT
proc.id.uid_nm COUNT
proc.id.euid_nm COUNT
proc.id.suid_nm COUNT
proc.id.fsuid_nm COUNT
proc.id.gid_nm COUNT
proc.id.egid_nm COUNT
proc.id.sgid_nm COUNT
proc.id.fsgid_nm COUNT
proc.fd.count COUNT
proc.schedstat.cpu_time COUNT
proc.schedstat.run_delay COUNT
proc.schedstat.pcount COUNT
